%YAML 1.1
%TAG !u! tag:unity3d.com,2011:
--- !u!114 &11400000
MonoBehaviour:
  m_ObjectHideFlags: 0
  m_PrefabParentObject: {fileID: 0}
  m_PrefabInternal: {fileID: 0}
  m_GameObject: {fileID: 0}
  m_Enabled: 1
  m_EditorHideFlags: 0
  m_Script: {fileID: 11500000, guid: 22ae98ca7abe3ae4f96abe3b568261a2, type: 3}
  m_Name: AudibleDisbeliefQuotes
  m_EditorClassIdentifier: 
  _quotes:
  - {fileID: 82138610369863094, guid: a6bcb574667778e469f7aeaeeee97913, type: 2}
  - {fileID: 82138610369863094, guid: c57e56d38d1f91f409b81c53f2ef4784, type: 2}
