%YAML 1.1
%TAG !u! tag:unity3d.com,2011:
--- !u!114 &11400000
MonoBehaviour:
  m_ObjectHideFlags: 0
  m_PrefabParentObject: {fileID: 0}
  m_PrefabInternal: {fileID: 0}
  m_GameObject: {fileID: 0}
  m_Enabled: 1
  m_EditorHideFlags: 0
  m_Script: {fileID: 11500000, guid: 22ae98ca7abe3ae4f96abe3b568261a2, type: 3}
  m_Name: YawningSounds
  m_EditorClassIdentifier: 
  _quotes:
  - {fileID: 82138610369863094, guid: 192adf94db03ece448dc375dc4e6211c, type: 2}
  - {fileID: 82138610369863094, guid: b1a23bc0070275a428b6e17a6e12063a, type: 2}
  - {fileID: 82138610369863094, guid: 6b9690cfff16b3d4c958501d1eb7c3a6, type: 2}
